\BOOKMARK [1][-]{section.1}{Objective}{}% 1
\BOOKMARK [1][-]{section.2}{Skills}{}% 2
\BOOKMARK [1][-]{section.3}{Experience}{}% 3
\BOOKMARK [1][-]{section.4}{Education}{}% 4
\BOOKMARK [1][-]{section.5}{Projects}{}% 5
